<?xml version="1.0" encoding="utf-8"?>
<!-- Generator: Adobe Illustrator 18.0.0, SVG Export Plug-In . SVG Version: 6.00 Build 0)  -->
<!DOCTYPE svg PUBLIC "-//W3C//DTD SVG 1.1//EN" "http://www.w3.org/Graphics/SVG/1.1/DTD/svg11.dtd">
<svg version="1.1" id="Layer_1" xmlns="http://www.w3.org/2000/svg" xmlns:xlink="http://www.w3.org/1999/xlink" x="0px" y="0px"
	 viewBox="0 0 200 125" enable-background="new 0 0 200 125" xml:space="preserve">
<g>
	<path d="M181.6,30.7c-2.1-1.4-4.4-2.4-7-3c-2.5-0.6-5.2-0.9-7.9-0.8c-2.8,0.1-5.4,0.3-8,0.6l-27.9,3.9c1.2-0.1,2.2,0.1,3.1,0.6
		c0.9,0.5,1.6,1.3,2.1,2.2c0.6,0.9,1,1.9,1.2,3c0.3,1.1,0.5,2.2,0.6,3.1c0.1,1.2,0.2,2.4,0.3,3.6c0,1.2,0.1,2.4,0.1,3.6
		c0,1.1,0,2-0.1,2.9c-0.1,0.9-0.4,1.8-0.9,2.8c-0.4,0.9-1,1.7-1.6,2.4c-0.6,0.7-1.3,1.3-2,2c0.8,0.4,1.5,0.8,2.2,1.2
		c0.7,0.4,1.2,0.8,1.7,1.3c0.4,0.5,0.8,1.1,1.1,1.9c0.3,0.7,0.4,1.6,0.5,2.7c0.1,1.4,0.1,2.8,0.2,4.2c0.1,1.4,0.1,2.8,0.1,4.2
		c0,1.6,0,3-0.2,4.1c-0.1,1.1-0.4,2.1-0.8,2.9c-0.4,0.8-1,1.6-1.9,2.3c-0.8,0.7-1.9,1.4-3.2,2.2l27.7-3.9c3.5-0.5,6.9-1.2,10.1-2.3
		c3.2-1,6.1-2.4,8.7-4.2c2.6-1.8,4.8-4.1,6.6-6.9c1.8-2.8,3-6.2,3.7-10.3c0.2-1.1,0.4-2,0.6-2.7c0.2-0.7,0.5-1.3,0.9-1.9
		c0.4-0.5,0.8-1.1,1.4-1.6c0.6-0.5,1.3-1.1,2.1-1.8c-1.1-0.6-2.1-1.4-3.2-2.4c-1.1-1-1.8-2.1-2.1-3.4c-0.3-1.2-0.7-2.4-1-3.5
		c-0.3-1.1-0.8-2.2-1.4-3.3C185.5,34,183.7,32.1,181.6,30.7z M170.1,58.9c-0.1,2.2-0.4,4.3-1,6.3c-0.6,2-1.6,3.6-2.9,5.1
		c-1.4,1.4-3.3,2.3-5.8,2.6l-4,0.6l-0.4-11.3c0-1.1,0-2,0.2-2.8c0.2-0.8,0.5-1.4,0.9-2c0.4-0.6,0.9-1.2,1.5-1.7
		c0.6-0.6,1.3-1.1,2-1.8c-1.5-0.8-2.7-1.8-3.6-2.9c-1-1.1-1.5-2.6-1.6-4.6L155,35.7l4-0.6c2.5-0.3,4.5,0,5.9,1
		c1.5,1,2.6,2.4,3.3,4.2c0.7,1.8,1.2,3.8,1.4,5.9c0.2,2.2,0.4,4.3,0.5,6.2C170.2,54.5,170.2,56.6,170.1,58.9z M81.5,86.1
		c0.6-1.6,0.9-3.7,0.8-6.2l-0.3-8c0-1-0.2-1.8-0.4-2.4c-0.3-0.6-0.6-1.2-1.1-1.7c-0.4-0.5-1-0.9-1.6-1.2c-0.6-0.3-1.3-0.7-2-1.1
		c1.2-1.1,2.3-2.3,3.3-3.6c0.9-1.3,1.3-2.8,1.3-4.5c0-1.3-0.1-2.6-0.1-3.8c0-1.2-0.1-2.5-0.2-3.7c-0.1-1.1-0.3-2.2-0.6-3.4
		c-0.3-1.2-0.8-2.2-1.4-3.2c-0.6-1-1.3-1.8-2.2-2.5c-0.9-0.7-1.9-1.2-3-1.4l52.8-7.4c0.3,2.7,0.6,5.4,0.9,8c0.3,2.7,0.6,5.4,0.8,8.1
		c-0.7-1.5-1.6-2.6-2.5-3.4c-0.9-0.8-1.9-1.3-3-1.7c-1.1-0.4-2.3-0.6-3.5-0.7c-1.3-0.1-2.6-0.2-4-0.4c-1.1-0.1-2.3-0.1-3.5-0.1
		c-1.2,0.1-2.3,0.2-3.5,0.3c-1.8,0.2-3.6,0.4-5.3,0.6c-1.8,0.3-3.5,0.5-5.3,0.8l0.5,14.4l7.6-1.1c0.9-0.1,1.7-0.5,2.4-1.2
		c0.7-0.7,1.4-1.5,2-2.4c0.6-0.9,1.1-1.9,1.5-2.9c0.4-1,0.7-1.9,0.9-2.7l0.9,24.3c-0.2-0.9-0.6-1.8-1.1-2.8c-0.5-1-1.1-1.9-1.8-2.8
		c-0.7-0.8-1.5-1.5-2.4-2c-0.9-0.5-1.8-0.7-2.9-0.5l-6.9,1l0.6,16.9c2.9-0.4,5.5-0.8,8-1.1c2.4-0.3,4.7-0.7,6.7-1.3
		c2-0.5,3.9-1.2,5.6-2.2c1.7-0.9,3.2-2.1,4.6-3.7c1.4-1.6,2.6-3.5,3.8-5.8c1.1-2.3,2.1-5.2,3-8.7c0,4.3-0.1,8.7-0.3,13
		c-0.2,4.3-0.3,8.7-0.4,13l-54.1,7.6c1.3-0.8,2.4-1.6,3.2-2.6C80.1,89,80.8,87.7,81.5,86.1z M12.5,48l25.4-3.6l20.2,33.2l-0.9-23.8
		c0-1.2-0.2-2.5-0.4-3.8c-0.2-1.3-0.7-2.6-1.2-3.7c-0.6-1.1-1.3-2-2.3-2.7c-1-0.7-2.2-1-3.6-0.9l22.6-3.2c0,0.1-0.1,0.1-0.3,0.1
		c-0.1,0-0.2,0.1-0.3,0.1c-0.7,0.3-1.4,0.7-2,1.3c-0.7,0.7-1.3,1.4-1.7,2.3c-0.4,0.9-0.7,1.8-1,2.7c-0.2,1-0.4,1.9-0.4,2.9
		c0,1-0.1,1.9,0,2.7l0.2,6.7c0,0,0,0.3,0,0.8c0,0.5,0.1,1.1,0.3,1.9c0.2,0.8,0.5,1.5,1,2.1c0.5,0.7,1.1,1.2,1.7,1.7
		c0.6,0.4,1.3,0.9,2,1.3c-0.6,0.5-1.2,1-1.8,1.5c-0.6,0.5-1,1-1.4,1.5c-0.4,0.5-0.7,1.1-0.9,1.8c-0.2,0.7-0.3,1.4-0.3,2.4l0.6,14.9
		c0,1.2,0.4,2.2,1.2,2.8c0.7,0.7,1.5,1.3,2.4,2l-21,2.9L29.3,60.8l1,25.8c0.1,1.6,0.3,3.1,0.6,4.8c0.4,1.6,1.1,3,2.1,4.1
		c0.3,0.3,0.7,0.6,1.2,0.9c0.5,0.3,0.9,0.6,1.4,0.8c0.5,0.2,1,0.5,1.7,0.7l-22.1,3.1c0,0,0.2-0.1,0.4-0.2c0.2-0.1,0.5-0.2,0.7-0.4
		c0.3-0.1,0.5-0.3,0.8-0.4c0.3-0.1,0.4-0.3,0.6-0.4c0.8-0.6,1.4-1.3,1.8-2.1c0.4-0.8,0.8-1.6,1-2.4c0.2-0.9,0.4-1.7,0.4-2.6
		c0.1-0.9,0.1-1.8,0.1-2.6c0-1.7,0-3.5-0.1-5.2c-0.1-1.7-0.2-3.5-0.2-5.2c0-0.8-0.2-1.5-0.5-2c-0.3-0.6-0.7-1-1.1-1.4
		c-0.5-0.4-1-0.8-1.6-1.1c-0.6-0.3-1.2-0.6-1.8-1c3.8-3.2,4-5.1,4.2-6.2c0.1-1,0.2-2.1,0.2-3.2c0-1.1,0-2.2-0.1-3.3
		c-0.1-1-0.1-1.8-0.1-2.4c0-1.2-0.2-2.4-0.4-3.8c-0.2-1.3-0.6-2.6-1.1-3.7c-0.5-1.1-1.2-2-2.2-2.7C15.2,48.1,14,47.9,12.5,48z
		 M198.6,69.2c1,19.3-28.4,18.2-67.2,23.8c-24.2,3.5-54.6,6.9-79.1,10.7c0,0,0,0,0,0c-21.7,3.1-34,4.9-37.7,9.1c0,0,0,0-0.1,0.1
		c-1.4,1.5-2.2,3.7-1.9,6c0.6,3.9,4.2,6.7,8.1,6.1c3.9-0.6,6.7-4.2,6.1-8.1c0-0.3-0.1-0.6-0.2-0.8c9.3-4.3,42.7-11.1,80.4-17.5
		c3.5,3.1,12.7,8.7,22.7,5.3c15,13.2,36.6,4.1,39.4-14C192.5,86.6,204.2,82.8,198.6,69.2z M113,97.6c3.4-0.6,6.9-1.1,10.4-1.6
		c1.5,2.3,3,4.1,4.7,6C121.1,103,115.5,99.8,113,97.6z M129.1,95.1c0.8-0.1,7-1,9.2-1.3c-1.1,3-3.1,4.8-5.3,6.3
		C131.3,98.5,130.2,96.9,129.1,95.1z M134.2,101.4c2.6-2.1,4.4-4.7,5.5-7.8c10.5-1.4,19.9-2.5,28-3.6
		C165.2,104.5,146.9,113.1,134.2,101.4z M68.6,32c24.2-3.5,54.6-6.9,79.1-10.7c0,0,0,0,0,0c21.7-3.1,34-4.9,37.7-9.1
		c0,0,0,0,0.1-0.1c1.4-1.5,2.2-3.7,1.9-6c-0.6-3.9-4.2-6.7-8.1-6.1c-3.9,0.6-6.7,4.2-6.1,8.1c0,0.3,0.1,0.6,0.2,0.8
		c-9.3,4.3-42.7,11.1-80.4,17.5c-3.5-3.1-12.7-8.7-22.7-5.3c-15-13.2-36.6-4.1-39.4,14c-23.1,3.2-34.8,7-29.3,20.6
		C0.4,36.4,29.8,37.6,68.6,32z M87,27.4c-3.4,0.6-6.9,1.1-10.4,1.6c-1.5-2.3-3-4.1-4.7-6C78.9,22,84.5,25.2,87,27.4z M70.9,29.9
		c-0.8,0.1-7,1-9.2,1.3c1.1-3,3.1-4.8,5.3-6.3C68.7,26.5,69.8,28.1,70.9,29.9z M65.8,23.6c-2.6,2.1-4.4,4.7-5.5,7.8
		c-10.5,1.4-19.9,2.5-28,3.6C34.8,20.5,53.1,11.9,65.8,23.6z"/>
</g>
</svg>
